module grpcProject

go 1.21.1

require (
	github.com/golang/mock v1.6.0
	github.com/grpc-ecosystem/grpc-gateway/v2 v2.18.0
	github.com/stretchr/testify v1.8.4
	google.golang.org/genproto/googleapis/api v0.0.0-20231012201019-e917dd12ba7a
	google.golang.org/grpc v1.59.0
	google.golang.org/grpc/cmd/protoc-gen-go-grpc v1.3.0
	google.golang.org/protobuf v1.31.0
)

require (
	github.com/davecgh/go-spew v1.1.1 // indirect
	github.com/golang/glog v1.1.2 // indirect
	github.com/golang/protobuf v1.5.3 // indirect
	github.com/kr/text v0.2.0 // indirect
	github.com/pmezard/go-difflib v1.0.0 // indirect
	github.com/rogpeppe/go-internal v1.11.0 // indirect
	golang.org/x/net v0.17.0 // indirect
	golang.org/x/sys v0.13.0 // indirect
	golang.org/x/text v0.13.0 // indirect
	google.golang.org/genproto v0.0.0-20231016165738-49dd2c1f3d0b // indirect
	google.golang.org/genproto/googleapis/rpc v0.0.0-20231030173426-d783a09b4405 // indirect
	gopkg.in/yaml.v3 v3.0.1 // indirect
)
